[gd_scene load_steps=2 format=2]

[ext_resource path="res://particles/Particle.tscn" type="PackedScene" id=1]

[node name="ParticleSpeeder" groups=[
"speeders",
] instance=ExtResource( 1 )]

[node name="AnimatedSprite" parent="." index="1"]
self_modulate = Color( 0.254902, 0.486275, 0.972549, 1 )
frame = 1
